59 0.00040405807558
61 0.00015899078182
62 0.00028406884633
65 0.00001547672673
67 0.00047471809248
70 0.00049359858850
71 0.00053153690224
73 0.00000182653982
74 0.00309963105366
75 0.00153967097982
76 0.00040906131031
77 0.00318106355358
78 0.00096479913759
80 0.00027395160626
81 0.00281536108707
82 0.00059680504167
83 0.00082588102884
84 0.00166529318873
85 0.00243349480012
86 0.00234703005130
87 0.00495912349663
88 0.00305917121683
89 0.00420547104031
90 0.00528561692131
91 0.00273014894807
92 0.00780813092348
93 0.00982662150670
94 0.00438586863915
95 0.00644006489265
96 0.00991386447840
97 0.00754116084596
98 0.01200258157475
99 0.00460126837301
100 0.00513638736142
101 0.01282412335783
102 0.00868857983542
103 0.01001786580412
104 0.01588306112022
105 0.01118879089053
106 0.01099595731471
107 0.01009670998061
108 0.00769697255017
109 0.01014948310572
110 0.01019582922048
111 0.01143703315595
112 0.01690621515083
113 0.01227817607221
114 0.01267173770921
115 0.01764252463565
116 0.01235765143066
117 0.02110062627269
118 0.01798221404653
119 0.01847537402825
120 0.01644516407616
121 0.01896272883508
122 0.02236731517362
123 0.01914671312408
124 0.01640665144514
125 0.01923140625095
126 0.01311948018056
127 0.02026529088608
128 0.01761009518535
129 0.01946167450545
130 0.01418531400703
131 0.01612046173570
132 0.01596084728449
133 0.01556752719844
134 0.01513952812418
135 0.01738182364714
136 0.01608930832875
137 0.01707423280813
138 0.01704071684131
139 0.01765803796443
140 0.02097973106770
141 0.01409265189804
142 0.01470666409049
143 0.01227427218785
144 0.01417108824772
145 0.01096409215877
146 0.01300890407246
147 0.01614996551091
148 0.01221493078629
149 0.01130375355684
150 0.00980382253335
151 0.01172583534091
152 0.01258991862145
153 0.00654710673869
154 0.00682130873818
155 0.00577857506497
156 0.00916039089011
157 0.00744188880620
158 0.00924979685724
159 0.00691710797776
160 0.00633793075043
161 0.00381515785256
162 0.00575523697107
163 0.00487668064966
164 0.00315220926222
165 0.00447567512362
166 0.00450093836270
167 0.00441192373593
168 0.00245076641165
169 0.00107503444032
170 0.00390130511925
171 0.00246077548440
172 0.00264117957029
173 0.00253020772145
174 0.00207175401459
175 0.00056100805968
176 0.00098173348304
177 0.00213241141172
178 0.00155165198283
179 0.00220566984124
180 0.00021410806775
181 0.00115830454534
182 0.00162322615293
183 0.00020909086021
185 0.00049880717468
188 0.00114195595420
189 0.00049228407062
192 0.00028614100018
195 0.00028882588439
196 0.00045040524039
197 0.00016758846588
198 0.00049556720284
201 0.00066566389976
217 0.00028193502454
