83 0.00132739515428
85 0.00565730172331
86 0.00131117454335
89 0.00105250445739
92 0.00261034422066
94 0.00086754973172
108 0.00002200445372
109 0.00258226749380
111 0.00156212734594
112 0.00780706282101
113 0.01028487335773
115 0.00490396057848
116 0.00035576456695
117 0.00019683802739
118 0.00020007735860
120 0.00307743203383
122 0.01344863928195
124 0.00185364290076
125 0.00000814994574
126 0.00053040802317
128 0.00016265972770
129 0.00292800344121
130 0.00491154522266
131 0.01553134434296
133 0.00691809425001
134 0.00061633658768
135 0.01269128001734
136 0.01129720952021
137 0.00708861181137
138 0.01739130194026
139 0.01060145212136
140 0.00252014429637
141 0.00000017039940
142 0.01072974282128
143 0.01190402638171
144 0.00064779247924
145 0.00583895933446
146 0.00445958230562
147 0.00673813437666
148 0.00674866972488
149 0.01021120277265
150 0.00407061555433
151 0.00373798312154
152 0.00947021670922
153 0.01496426616929
154 0.01604181092797
155 0.00567490442928
156 0.01738221265344
157 0.00777293363416
158 0.01154216042565
159 0.00718507046138
160 0.00439967348070
161 0.00825409337470
162 0.01879674281879
163 0.02561204964086
164 0.02210539372100
165 0.00405157401664
166 0.01307970498071
167 0.01081075450100
168 0.01093043299143
169 0.01755682584883
170 0.00959928839948
171 0.00519475106233
172 0.01133892480032
173 0.01345713966349
174 0.01333494029105
175 0.01901841921028
176 0.01635750867680
177 0.00388072385227
178 0.01201684267724
179 0.01528822528192
180 0.01344387798976
181 0.00822972746983
182 0.01275524512013
183 0.01546762698641
184 0.01390349691534
185 0.02091567107925
186 0.01460189755406
187 0.01673229072291
188 0.01812310914159
189 0.01177099392339
190 0.00870739467736
191 0.01294361298021
192 0.01300856883018
193 0.01133511804992
194 0.00855131432998
195 0.01305076691571
196 0.00876960253231
197 0.01249606212155
198 0.01123806266651
199 0.00698068445269
200 0.01568357538226
201 0.00894232375873
202 0.00750695054598
203 0.00784481391215
204 0.00522987594143
205 0.00784481391214
206 0.01099460710093
207 0.00261493797072
208 0.00606044062552
209 0.00653734492679
210 0.00392240695607
211 0.00522987594143
212 0.00522987594143
213 0.00283770588570
214 0.00261493797072
215 0.00915228289750
216 0.00392240695607
217 0.00262277962059
218 0.00261493797072
220 0.00130746898536
221 0.00130746898536
222 0.00522987594143
223 0.00261493797072
225 0.00392238142277
226 0.00261493797072
227 0.00522987594143
228 0.00130746898536
232 0.00130746898536
233 0.00522987594143
234 0.00392240695607
235 0.00130746898536
236 0.00130746898536
237 0.00130746898536
241 0.00392240695607
242 0.00130746898536
243 0.00261493797072
246 0.00130746898536
247 0.00130746898536
248 0.00130746876473
250 0.00130746898536
259 0.00130746898536
260 0.00130746898536
263 0.00261493797072
270 0.00167255629617
271 0.00130746898536
285 0.00130746898536
292 0.00130746898536
301 0.00130746898536
335 0.00130746898536
499 0.00130746898536
510 0.00130746898536
